

-------------------attendance_out.json-------17:52-----------
["{\"Data\":{\"app_version\":\"564\",\"auth_token\":\"bb30e0bfce6560caac9de74029830252\",\"local_id\":8,\"type\":\"attendance-out\",\"type_info\":{\"accuracy\":\"1\",\"date\":\"20191223_165738\",\"id\":8,\"lat\":\"21.7371\",\"location\":\"SH10, Nayaganj Ward, Bhatapara, Chhattisgarh 493118, India\",\"lon\":\"81.9408\",\"travelCost\":0,\"travelMode\":\"Two Wheeler\"},\"user\":\"0070E\"}}"]

-------------------attendance_out.json-------17:56-----------
["{\"Data\":{\"app_version\":\"564\",\"auth_token\":\"bb30e0bfce6560caac9de74029830252\",\"local_id\":8,\"type\":\"attendance-out\",\"type_info\":{\"accuracy\":\"1\",\"date\":\"20191223_165738\",\"id\":8,\"lat\":\"21.7371\",\"location\":\"SH10, Nayaganj Ward, Bhatapara, Chhattisgarh 493118, India\",\"lon\":\"81.9408\",\"travelCost\":0,\"travelMode\":\"Two Wheeler\"},\"user\":\"0070E\"}}"]

-------------------attendance_out.json-------18:08-----------
["{\"Data\":{\"app_version\":\"564\",\"auth_token\":\"bb30e0bfce6560caac9de74029830252\",\"local_id\":8,\"type\":\"attendance-out\",\"type_info\":{\"accuracy\":\"1\",\"date\":\"20191223_165738\",\"id\":8,\"lat\":\"21.7371\",\"location\":\"SH10, Nayaganj Ward, Bhatapara, Chhattisgarh 493118, India\",\"lon\":\"81.9408\",\"travelCost\":0,\"travelMode\":\"Two Wheeler\"},\"user\":\"0070E\"}}"]

-------------------attendance_out.json-------18:08-----------
["{\"Data\":{\"app_version\":\"564\",\"auth_token\":\"bb30e0bfce6560caac9de74029830252\",\"local_id\":8,\"type\":\"attendance-out\",\"type_info\":{\"accuracy\":\"1\",\"date\":\"20191223_165738\",\"id\":8,\"lat\":\"21.7371\",\"location\":\"SH10, Nayaganj Ward, Bhatapara, Chhattisgarh 493118, India\",\"lon\":\"81.9408\",\"travelCost\":0,\"travelMode\":\"Two Wheeler\"},\"user\":\"0070E\"}}"]

-------------------attendance_out.json-------18:09-----------
["{\"Data\":{\"app_version\":\"564\",\"auth_token\":\"bb30e0bfce6560caac9de74029830252\",\"local_id\":8,\"type\":\"attendance-out\",\"type_info\":{\"accuracy\":\"1\",\"date\":\"20191223_165738\",\"id\":8,\"lat\":\"21.7371\",\"location\":\"SH10, Nayaganj Ward, Bhatapara, Chhattisgarh 493118, India\",\"lon\":\"81.9408\",\"travelCost\":0,\"travelMode\":\"Two Wheeler\"},\"user\":\"0070E\"}}"]

-------------------attendance_out.json-------18:09-----------
["{\"Data\":{\"app_version\":\"564\",\"auth_token\":\"bb30e0bfce6560caac9de74029830252\",\"local_id\":8,\"type\":\"attendance-out\",\"type_info\":{\"accuracy\":\"1\",\"date\":\"20191223_165738\",\"id\":8,\"lat\":\"21.7371\",\"location\":\"SH10, Nayaganj Ward, Bhatapara, Chhattisgarh 493118, India\",\"lon\":\"81.9408\",\"travelCost\":0,\"travelMode\":\"Two Wheeler\"},\"user\":\"0070E\"}}"]

-------------------attendance_out.json-------18:10-----------
["{\"Data\":{\"app_version\":\"564\",\"auth_token\":\"bb30e0bfce6560caac9de74029830252\",\"local_id\":8,\"type\":\"attendance-out\",\"type_info\":{\"accuracy\":\"1\",\"date\":\"20191223_165738\",\"id\":8,\"lat\":\"21.7371\",\"location\":\"SH10, Nayaganj Ward, Bhatapara, Chhattisgarh 493118, India\",\"lon\":\"81.9408\",\"travelCost\":0,\"travelMode\":\"Two Wheeler\"},\"user\":\"0070E\"}}"]

-------------------attendance_out.json-------18:10-----------
{"Data":{"app_version":"564","auth_token":"bb30e0bfce6560caac9de74029830252","local_id":8,"type":"attendance-out","type_info":{"accuracy":"1","date":"20191223_165738","id":8,"lat":"21.7371","location":"SH10, Nayaganj Ward, Bhatapara, Chhattisgarh 493118, India","lon":"81.9408","travelCost":0,"travelMode":"Two Wheeler"},"user":"0070E"}}